<svg width="20" height="20" viewBox="0 0 20 20" fill="none" xmlns="http://www.w3.org/2000/svg">
<path d="M13.3536 10.8536C13.5488 10.6583 13.5488 10.3417 13.3536 10.1464C13.1583 9.95118 12.8417 9.95118 12.6464 10.1464L9 13.7929L7.35355 12.1464C7.15829 11.9512 6.84171 11.9512 6.64645 12.1464C6.45118 12.3417 6.45118 12.6583 6.64645 12.8536L8.29289 14.5C8.68342 14.8905 9.31658 14.8905 9.70711 14.5L13.3536 10.8536Z" fill="white"/>
<path fill-rule="evenodd" clip-rule="evenodd" d="M6 0.75C6.41421 0.75 6.75 1.08579 6.75 1.5V2.25H13.25V1.5C13.25 1.08579 13.5858 0.75 14 0.75C14.4142 0.75 14.75 1.08579 14.75 1.5V2.25H16.5C17.7426 2.25 18.75 3.25736 18.75 4.5V16.5C18.75 17.7426 17.7426 18.75 16.5 18.75H3.5C2.25736 18.75 1.25 17.7426 1.25 16.5V4.5C1.25 3.25736 2.25736 2.25 3.5 2.25H5.25V1.5C5.25 1.08579 5.58579 0.75 6 0.75ZM5.25 4.5V3.75H3.5C3.08579 3.75 2.75 4.08579 2.75 4.5V7H17.25V4.5C17.25 4.08579 16.9142 3.75 16.5 3.75H14.75V4.5C14.75 4.91421 14.4142 5.25 14 5.25C13.5858 5.25 13.25 4.91421 13.25 4.5V3.75H6.75V4.5C6.75 4.91421 6.41421 5.25 6 5.25C5.58579 5.25 5.25 4.91421 5.25 4.5ZM17.25 8H2.75V16.5C2.75 16.9142 3.08579 17.25 3.5 17.25H16.5C16.9142 17.25 17.25 16.9142 17.25 16.5V8Z" fill="white"/>
</svg>
