<svg width="340" height="327" viewBox="0 0 340 327" fill="none" xmlns="http://www.w3.org/2000/svg">
<mask id="mask0" mask-type="alpha" maskUnits="userSpaceOnUse" x="0" y="0" width="340" height="327">
<rect width="340" height="327" fill="#C4C4C4"/>
</mask>
<g mask="url(#mask0)">
<path d="M312.456 267.819H22.3183C9.99859 267.819 0 257.821 0 245.501V22.3183C0 9.99859 9.99859 0 22.3183 0H312.456C324.776 0 334.774 9.99859 334.774 22.3183V245.501C334.774 257.821 324.776 267.819 312.456 267.819Z" transform="translate(122.696 58.0732) rotate(18.2617)" stroke="url(#paint0_linear)" stroke-miterlimit="10" stroke-linecap="round" stroke-linejoin="round"/>
<path d="M0 0L122.751 100.432L245.501 0" transform="translate(144.101 135.643) rotate(18.2617)" stroke="url(#paint1_linear)" stroke-miterlimit="10" stroke-linecap="round" stroke-linejoin="round"/>
<path d="M0 33.4774L33.4774 0" transform="translate(112.629 231.017) rotate(18.2617)" stroke="url(#paint2_linear)" stroke-miterlimit="10" stroke-linecap="round" stroke-linejoin="round"/>
<path d="M33.4774 33.4774L0 0" transform="translate(313.979 297.458) rotate(18.2617)" stroke="url(#paint3_linear)" stroke-miterlimit="10" stroke-linecap="round" stroke-linejoin="round"/>
</g>
<defs>
<linearGradient id="paint0_linear" x2="1" gradientUnits="userSpaceOnUse" gradientTransform="translate(-9.22893 7.8147) scale(334.774 267.819) rotate(-3.25309)">
<stop stop-color="#2F80ED"/>
<stop offset="1" stop-color="#249BDF"/>
</linearGradient>
<linearGradient id="paint1_linear" x2="1" gradientUnits="userSpaceOnUse" gradientTransform="translate(-6.76788 2.93051) scale(245.501 100.432) rotate(-3.25309)">
<stop stop-color="#2F80ED"/>
<stop offset="1" stop-color="#249BDF"/>
</linearGradient>
<linearGradient id="paint2_linear" x2="1" gradientUnits="userSpaceOnUse" gradientTransform="translate(-0.922893 0.976838) scale(33.4774) rotate(-3.25309)">
<stop stop-color="#2F80ED"/>
<stop offset="1" stop-color="#249BDF"/>
</linearGradient>
<linearGradient id="paint3_linear" x2="1" gradientUnits="userSpaceOnUse" gradientTransform="translate(-0.922892 0.976838) scale(33.4774) rotate(-3.25309)">
<stop stop-color="#2F80ED"/>
<stop offset="1" stop-color="#249BDF"/>
</linearGradient>
</defs>
</svg>
